…
    
clean_covar_df
```

    ## # A tibble: 229 × 5
    ##    seqn  sex    age   bmi   education             
    ##    <chr> <chr>  <chr> <chr> <chr>                 
    ##  1 62161 male   22    23.3  High school equivalent
    ##  2 62164 female 44    23.2  More than high school 
    ##  3 62169 male   21    20.1  High school equivalent
    ##  4 62174 male   80    33.9  More than high school 
    ##  5 62177 male   51    20.1  High school equivalent
    ##  6 62178 male   80    28.5  High school equivalent
    ##  7 62180 male   35    27.9  More than high school 
    ##  8 62184 male   26    22.1  High school equivalent
    ##  9 62189 female 30    22.4  More than high school 
    ## 10 62199 male   57    28    More than high school 
    ## # ℹ 219 more rows
…
``` r
clean_accel_df = accel_df |>
      drop_na()|>
        mutate_all(as.character)
clean_accel_df
```

    ## # A tibble: 250 × 1,441
    ##    seqn  min1  min2  min3  min4  min5  min6  min7  min8  min9  min10 min11 min12
    ##    <chr> <chr> <chr> <chr> <chr> <chr> <chr> <chr> <chr> <chr> <chr> <chr> <chr>
    ##  1 62161 1.106 3.11… 1.46… 0.93… 1.59… 0.14… 2.10… 0.50… 1.63… 1.19… 0.94… 0.02…
    ##  2 62164 1.92… 1.66… 2.376 0.93… 2.59… 5.22… 2.39… 4.90… 1.96… 3.134 2.77… 2.45…
    ##  3 62169 5.84… 5.17… 4.76… 6.482 6.85… 7.24… 6.11… 7.48… 5.47… 6.49… 5.13… 3.51…
    ##  4 62174 5.421 3.48… 3.71… 3.80… 6.85… 4.44… 0.56… 1.608 0.69… 2.72… 4.84… 0.57…
    ##  5 62177 6.14… 8.05… 9.99… 6.59… 4.571 2.78… 7.10… 7.25… 10.1… 7.49… 2.718 2.39…
    ##  6 62178 0.16… 0.42… 0.13… 1.20… 0.07… 0.04… 0.10… 0.06… 0.05… 0.06… 0.09… 0.03…
    ##  7 62180 0.039 0     0     0     0.36… 0.265 0.50… 0.63… 0     0.011 1.09… 2.39…
    ##  8 62184 1.54… 2.81… 3.86… 4.75… 6.104 7.61… 4.73… 6.73… 5.42… 4.24… 5.15… 3.95…
    ##  9 62186 3.07… 2.54… 2.62… 2.119 1.14… 1.68… 2.84… 2.72… 2.12… 2.182 2.28… 2.03…
    ## 10 62189 2.81… 0.19… 0.16… 0     0.14… 0.18… 0.86… 0.21… 0     0     0     0.494
    ## # ℹ 240 more rows
    ## # ℹ 1,428 more variables: min13 <chr>, min14 <chr>, min15 <chr>, min16 <chr>,
    ## #   min17 <chr>, min18 <chr>, min19 <chr>, min20 <chr>, min21 <chr>,
    ## #   min22 <chr>, min23 <chr>, min24 <chr>, min25 <chr>, min26 <chr>,
    ## #   min27 <chr>, min28 <chr>, min29 <chr>, min30 <chr>, min31 <chr>,
    ## #   min32 <chr>, min33 <chr>, min34 <chr>, min35 <chr>, min36 <chr>,
    ## #   min37 <chr>, min38 <chr>, min39 <chr>, min40 <chr>, min41 <chr>, …

\#merging data sets The following chunk merges the data set by variable
SEQN and filters out observations where age is less than 21.

``` r
nhanes_df = inner_join(clean_covar_df, clean_accel_df, by = "seqn") |>
  filter(
      age>=21
  )
nhanes_df
```

    ## # A tibble: 228 × 1,445
    ##    seqn  sex    age   bmi   education  min1  min2  min3  min4  min5  min6  min7 
    ##    <chr> <chr>  <chr> <chr> <chr>      <chr> <chr> <chr> <chr> <chr> <chr> <chr>
    ##  1 62161 male   22    23.3  High scho… 1.106 3.11… 1.46… 0.93… 1.59… 0.14… 2.10…
    ##  2 62164 female 44    23.2  More than… 1.92… 1.66… 2.376 0.93… 2.59… 5.22… 2.39…
    ##  3 62169 male   21    20.1  High scho… 5.84… 5.17… 4.76… 6.482 6.85… 7.24… 6.11…
    ##  4 62174 male   80    33.9  More than… 5.421 3.48… 3.71… 3.80… 6.85… 4.44… 0.56…
    ##  5 62177 male   51    20.1  High scho… 6.14… 8.05… 9.99… 6.59… 4.571 2.78… 7.10…
    ##  6 62178 male   80    28.5  High scho… 0.16… 0.42… 0.13… 1.20… 0.07… 0.04… 0.10…
    ##  7 62180 male   35    27.9  More than… 0.039 0     0     0     0.36… 0.265 0.50…
    ##  8 62184 male   26    22.1  High scho… 1.54… 2.81… 3.86… 4.75… 6.104 7.61… 4.73…
    ##  9 62189 female 30    22.4  More than… 2.81… 0.19… 0.16… 0     0.14… 0.18… 0.86…
    ## 10 62199 male   57    28    More than… 0.031 0.03… 0.03… 0.079 0.10… 0.26… 0.87…
    ## # ℹ 218 more rows
    ## # ℹ 1,433 more variables: min8 <chr>, min9 <chr>, min10 <chr>, min11 <chr>,
    ## #   min12 <chr>, min13 <chr>, min14 <chr>, min15 <chr>, min16 <chr>,
    ## #   min17 <chr>, min18 <chr>, min19 <chr>, min20 <chr>, min21 <chr>,
    ## #   min22 <chr>, min23 <chr>, min24 <chr>, min25 <chr>, min26 <chr>,
    ## #   min27 <chr>, min28 <chr>, min29 <chr>, min30 <chr>, min31 <chr>,
    ## #   min32 <chr>, min33 <chr>, min34 <chr>, min35 <chr>, min36 <chr>, …
…
nhanes_df_pivot
```

    ## # A tibble: 328,320 × 9
    ##    seqn  sex   age   bmi   education            time   MIM mean_MIM centered_MIM
    ##    <chr> <chr> <chr> <chr> <chr>               <dbl> <dbl>    <dbl>        <dbl>
    ##  1 62161 male  22    23.3  High school equiva…     1 1.11      8.54        -7.43
    ##  2 62161 male  22    23.3  High school equiva…     2 3.12      8.54        -5.42
    ##  3 62161 male  22    23.3  High school equiva…     3 1.47      8.54        -7.07
    ##  4 62161 male  22    23.3  High school equiva…     4 0.938     8.54        -7.60
    ##  5 62161 male  22    23.3  High school equiva…     5 1.60      8.54        -6.94
    ##  6 62161 male  22    23.3  High school equiva…     6 0.145     8.54        -8.39
    ##  7 62161 male  22    23.3  High school equiva…     7 2.10      8.54        -6.44
    ##  8 62161 male  22    23.3  High school equiva…     8 0.509     8.54        -8.03
    ##  9 62161 male  22    23.3  High school equiva…     9 1.63      8.54        -6.91
    ## 10 62161 male  22    23.3  High school equiva…    10 1.20      8.54        -7.34
    ## # ℹ 328,310 more rows
…
